........................
----------------------------------------------------------------------
Ran 24 tests in 0.006s

OK
Name             Stmts   Miss Branch BrPart  Cover   Missing
------------------------------------------------------------
Collatz.py          32      0     14      0   100%
TestCollatz.py      98      0      0      0   100%
------------------------------------------------------------
TOTAL              130      0     14      0   100%
