1 10 20
100 200 125
201 210 89
900 1000 174
290 194 128
108 20 119
171 13 125
225 34 125
274 187 128
40 5 112
130 22 122
285 97 128
156 120 122
157 21 122
131 71 122
177 44 125
122 60 119
255 153 128
226 168 125
276 233 128
199 100 125
104 90 119
75 27 116
155 86 122
264 254 123
210 112 125
48 11 112
295 15 128
143 2 122
203 30 125
93 15 116
167 43 122
13 11 15
293 71 128
104 37 119
177 10 125
174 118 125
15 15 18
148 44 122
39 2 112
236 186 128
45 41 110
2 1 2
14 1 20
242 226 128
172 112 125
142 91 122
61 31 113
223 153 125
207 195 120
127 6 119
77 7 116
205 170 125
213 106 125
230 156 125
156 8 122
292 67 128
279 243 123
33 11 112
180 165 125
257 250 123
38 10 112
237 103 128
205 76 125
64 51 113
269 107 128
124 107 114
132 26 122
15 1 20
99 14 119
103 7 119
69 16 113
188 117 125
37 13 112
179 54 125
186 109 125
256 164 128
12 3 20
110 35 119
243 231 128
243 93 128
24 20 16
222 163 125
76 45 116
160 19 122
54 51 113
81 33 116
204 82 125
10 4 20
185 168 125
145 52 122
51 48 25
198 31 125
112 49 119
89 85 31
1 1 1
196 82 125
223 165 125
142 97 122
240 237 53
127 115 109
216 6 125
218 31 125
232 115 128
144 48 122
189 34 125
106 72 119
92 86 93
227 175 120
211 186 120
203 2 125
42 29 110
80 9 116
41 7 112
19 17 21
234 66 128
200 16 125
7 5 17
1 1 1
222 146 125
181 123 125
167 131 117
268 53 128
58 32 113
135 34 122
28 16 112
36 7 112
176 119 125
135 104 122
200 178 120
190 86 125
261 3 128
183 50 125
241 209 128
26 2 24
280 181 128
276 128 128
185 157 125
23 3 21
38 30 107
20 5 21
19 14 21
181 12 125
12 7 20
83 45 116
19 3 21
201 39 125
240 36 128
81 58 116
266922 120991 443
761571 492399 509
619375 458625 470
912387 908480 476
10794 337109 443
104355 823442 509
557197 783840 509
473845 64200 449
312402 291600 384
858386 569956 525
883765 391894 525
918585 742047 525
984933 735851 525
155494 201007 383
485801 659201 509
324617 709383 509
106832 695267 509
963920 320184 525
464231 924140 525
629690 10054 509
1823 801679 509
475128 445134 444
930859 555588 525
803738 589725 509
487884 712437 509
859533 600542 525
186963 696253 509
898893 249366 525
523847 705754 509
788835 37790 509
818667 655490 504
493786 425571 444
21070 576676 470
400157 820916 509
296861 597929 470
721077 558643 509
179323 545003 470
786501 236495 509
473832 539643 470
603717 971820 525
863872 585926 525
899893 666179 525
443370 18927 449
531679 454700 470
159467 284806 443
120253 902735 525
125484 245456 443
320915 6387 443
121674 849509 525
143121 858959 525
807015 540471 509
75156 752416 509
431592 159067 449
403827 815459 509
560355 370668 470
311901 221665 443
957888 826813 525
742807 758730 424
323 928974 525
298775 270258 407
601570 980884 525
586304 316637 470
483700 669574 509
698064 618231 509
