1 10 20
100 200 125
201 210 89
900 1000 174
10 10 7
4000 4000 114
521 521 124
64 64 7
80 80 10
9 9 20
999 999 50
23825 793323 509
638826 370855 509
378036 472142 449
160988 344012 443
109965 180648 383
374745 256123 441
425413 380672 449
484549 656141 509
208392 14915 383
963206 97588 525
954952 251097 525
166012 181562 365
901295 230406 525
668791 406567 509
208128 482709 449
68604 623470 470
211233 93607 383
515484 392909 470
10291 630928 509
496353 596034 470
431533 59243 449
666756 732355 504
872284 878555 432
897308 834540 525
102513 558351 470
183013 603477 470
933065 724100 525
908870 841824 445
154502 595455 470
821027 576747 509
735692 134951 509
797902 930169 525
13784 281489 443
418744 212048 449
545013 115291 470
553486 241985 470
945466 783088 525
293690 367187 441
523336 743236 509
308670 194683 443
642809 797118 504
573289 539724 452
572593 172717 470
784864 423547 509
863822 372506 525
780634 43992 509
386717 617792 470
692562 47257 509
319849 831155 509
743868 833095 468
424944 931649 525
769099 219320 509
601729 239413 470
499636 215041 449
781004 918169 525
466436 337051 449
461750 777489 509
335654 698861 509
956387 601207 525
694786 536867 509
251057 913784 525
433920 892671 525
250269 37090 443
127879 609697 470
664773 781918 504
85536 274506 443
75192 822963 509
235545 307628 407
204430 20193 383
403070 965496 525
817146 638284 504
66687 235232 443
762959 559506 509
154319 212520 383
778627 514763 509
136639 108736 349
469808 82900 449
380808 437760 449
500040 78420 449
473984 395119 449
970675 356744 525
370387 680105 509
269693 763845 509
498042 11192 449
827863 673342 504
374678 799042 509
394902 998736 525
521957 423418 470
261407 103334 443
68007 833256 509
497924 359970 449
467620 757640 509
528419 255117 470
514404 174397 470
597725 459352 470
689787 345515 509
119013 779004 509
787929 165006 509
50857 340730 443
850567 249218 525
868517 314700 525
471670 909314 525
667364 606841 509
938020 893136 476
324375 409069 441
686286 447205 509
521933 841150 525
432718 938758 525
920900 333142 525
